{
    "age": {
        "min": 18,
        "max": 80
    },
    "genderRoles": ["Мужчина", "Женщина"],
    "childfree": {
        "description": "Чайлдфри",
        "chance": 5
    },
    "sexualOrientation": [
        {
            "description": "Асексуальность",
            "chance": 5
        },
        {
            "description": "Бисексуальность",
            "chance": 5
        },
        {
            "description": "Гомосексуальность",
            "chance": 5
        },
        {
            "description": "Гетеросексуальность",
            "chance": 100
        }
    ],
    "professions": [
        "Безработный",
        "Фотограф",
        "Охотник",
        "Садовник",
        "Хирург",
        "Профессиональный гонщик",
        "Слесарь",
        "Ветеренар",
        "Акушер гениколог",
        "Библиотекарь",
        "Медсистра",
        "Фельдшер",
        "Патологоанатом",
        "Шахтер",
        "Астрофизик",
        "Тамада",
        "Судья",
        "Переводчик",
        "Продовец",
        "Писатель",
        "Философ",
        "Диджей",
        "Психолог",
        "Звукорежиссер",
        "Физик-ядерщик",
        "Эколог",
        "Поэт",
        "Военный",
        "Менеджер по продажам",
        "Дровосек",
        "Телеведущий",
        "Моряк",
        "Плотник",
        "Стоматолог",
        "Метеоролог",
        "Зоолог",
        "Иммунолог",
        "Телекоммуникационный инженер",
        "Священик",
        "Разносчик пиццы",
        "Программист",
        "Сомелье",
        "Дизайнер",
        "Кондитер",
        "Президент",
        "Биолог",
        "Блогер",
        "Космонавт",
        "Биофизик",
        "Животновод",
        "Полицейский",
        "Порноактер",
        "Военный летчик",
        "Скульптор",
        "Кузнец",
        "Авиоконструктор"
    ],
    "hobby": [
        "Гребля на каное.",
        "Игра в футбол.",
        "Стрельба по статичным мишеням.",
        "Наблюдение за птицами.",
        "Плотницкое дело.",
        "Любит плавать.",
        "Зоология.",
        "Танцы.",
        "Разведение пчел.",
        "Кемпинг.",
        "Игра в гольф.",
        "Фотография.",
        "Программирование.",
        "Дайвинг.",
        "Бильярд.",
        "Плавание.",
        "Рыбалка.",
        "Походы.",
        "Сбор грибов.",
        "Парусный спорт.",
        "Виноделие.",
        "Пение.",
        "Шитье и вязание.",
        "Реставрация.",
        "Игра на губной гармошке.",
        "Паркур.",
        "Озвучка.",
        "Битбокс.",
        "Реставрация.",
        "Боевые искусства.",
        "Коллекционирование монет.",
        "Лечение травами.",
        "Катание на скейтборде.",
        "Фехтование.",
        "Космология.",
        "Решение головоломок."
    ],
    "phobias": [
        {
            "description": "Страх выступления перед публикой.",
            "chance": 2
        },
        {
            "description": "Страх остаться в одиночестве.",
            "chance": 2
        },
        {
            "description": "Елотофобия (боязнь насмешек).",
            "chance": 2
        },
        {
            "description": "Арахнохобия(Боязнь пауков).",
            "chance": 2
        },
        {
            "description": "Аквофобия(Боязнь утонуть).",
            "chance": 2
        },
        {
            "description": "Невротическая боязнь знаний.",
            "chance": 2
        },
        {
            "description": "Боязнь сгореть заживо.",
            "chance": 2
        },
        {
            "description": "Боязнь громких звуков.",
            "chance": 2
        },
        {
            "description": "Боязнь флейты.",
            "chance": 2
        },
        {
            "description": "Боязнь острых предметов.",
            "chance": 2
        },
        {
            "description": "Боязнь высоты.",
            "chance": 2
        },
        {
            "description": "Боязнь воды.",
            "chance": 2
        },
        {
            "description": "Боязнь компьютеров.",
            "chance": 2
        },
        {
            "description": "Боязнь призраков.",
            "chance": 2
        },
        {
            "description": "Боязнь рептилий.",
            "chance": 2
        },
        {
            "description": "Боязнь библиотек.",
            "chance": 2
        },
        {
            "description": "Агорафобия.",
            "chance": 2
        },
        {
            "description": "Клаустрофобия.",
            "chance": 2
        },
        {
            "description": "Зоофобия.",
            "chance": 2
        },
        {
            "description": "Ботанофобия.",
            "chance": 2
        },
        {
            "description": "Социофобия.",
            "chance": 2
        },
        {
            "description": "Боязнь пожилых людей.",
            "chance": 2
        },
        {
            "description": "Боязнь темноты.",
            "chance": 2
        },
        {
            "description": "Боязнь демонов.",
            "chance": 2
        },
        {
            "description": "Боязнь грязи.",
            "chance": 2
        },
        {
            "description": "Боязнь собак.",
            "chance": 2
        },
        {
            "description": "Нет фобий.",
            "chance": 100
        }
    ],
    "additionalInformation": [
        "Изучал составы различных жидкостей.",
        "Хотел стать космонавтом.",
        "Знаю серьезных дядек.",
        "Любит кулинарию и необычайно вкусно готовит.",
        "Хорош в охотничьем промысле.",
        "В душе архитектор.",
        "Родители занимались скотоводством.",
        "Знает где находиться склад с оружием.",
        "Знал лично президента.",
        "Знает все стихи Пушкина наизусть.",
        "Изучал воду и ее очищение.",
        "Может сделать алкоголь из чего угодно.",
        "Прочитал все книги о зомби.",
        "5 раз читал Гарри Поттера.",
        "Обладает экстрасенсорными способностями.",
        "Мастер спорта по боксу.",
        "Переспал с порнозвездой.",
        "Умеет ориентироваться по звездам.",
        "Верит в инопланетян.",
        "Имеет КМС по стрельбе.",
        "Каждое утро бегает.",
        "Сидел в тюрьме.",
        "Совершил кругосветную путешествие.",
        "Знает все песни Аллы Пугачевой.",
        "Ограбил деда.",
        "Изучение законов физики.",
        "Верит НЛО.",
        "Изучал азбуку Морзе.",
        "Ограбил банк.",
        "Окончил курсы уролога.",
        "Знает произведения Шекспира.",
        "Спас детей в пожаре.",
        "Устроил пожар.",
        "Окончил курсы гинеколога.",
        "Окончил курсы сексолога.",
        "Готовился к аппокалпсису.",
        "Служил в армии.",
        "Закончил Оксфорд."
    ],
    "baggage": [
        "Коробка алкоголя.",
        "Препарат(таблетки) для полного обезораживания воды.",
        "Свечи и 10 спичечьных коробков.",
        "Пачка пистолетных патронов.",
        "Набор строителя.",
        "Свисток и лупа.",
        "Гитара.",
        "Набор первой помощи.",
        "10 блоков сигарет.",
        "Костюм клоуна.",
        "Канистра бензина.",
        "Грудной ребенок.",
        "30-летний попугай.",
        "Семена кукурузы.",
        "Фильтры для воды на 3 года.",
        "Чемоданчик фельдшера скорой помощи.",
        "Микрофон с колонкой.",
        "Беременная коза.",
        "Большой запас инсулина и лития.",
        "Мультиварка.",
        "Термос.",
        "Ящик пива.",
        "Книга о выживании.",
        "Зажигалка.",
        "Контейнер с бутербродами.",
        "Семена пшеницы.",
        "Приставка нинтендо свитч.",
        "Кальян.",
        "Винтовка и 200 патронов.",
        "Средство против насекомых.",
        "Ножи для метания.",
        "Квадрокоптер.",
        "Канистра бензина.",
        "Переносная электростанция.",
        "Велосипед.",
        "Кот 10кг.",
        "Экзоскелет.",
        "Порножурналы.",
        "Жвачки Love Is."
    ],
    "actionCards": [
        {
            "description": "Все узнают, что рядом есть заброшенный медецинский центр",
            "key": "MEDICAL_CENTER"
        },
        {
            "description": "Все узнают, что рядом есть еще один бункер с двумя людьми. Их пол неизвестен.",
            "key": "TWO_PEOPLE"
        },
        {
            "description": "Все узнают местонахождение большого тайника с продовольствием.",
            "key": "FOOD"
        },
        {
            "description": "Все узнают, что рядом был столярный цех.",
            "key": "CARPENTRY_SHOP"
        },
        {
            "description": "Меняет ваше здоровье на новое случайное.",
            "key": "GENERATE_SELF_HEALTS_STATUSES"
        },
        {
            "description": "Убирает из бункера всех насекомых и паразитов.",
            "key": "REMOVE_PARASITES"
        },
        {
            "description": "Ваш голос против считается за 2.",
            "key": "SELF_VOTE_EQUAL_TWO"
        },
        {
            "description": "Все узнают, что рядом есть склад с оружием. Содержимое неизвестно.",
            "key": "UNKNOWN_WEAPONS_WAREHOUSE"
        },
        {
            "description": "Все узнают, что рядом есть склад с инструментами.",
            "key": "TOOL_WAREHOUSE"
        },
        {
            "description": "Лечит ВИЧ у любого из игроков.",
            "key": "CURES_HIV"
        },
        {
            "description": "Дает возможност вылечить ваше чайлдфри.",
            "key": "CURES_CHILDFREE"
        },
        {
            "description": "Если уходит игрок перед вами, то вы не попадаете в бункер.",
            "key": "BEFORE_PLAYER"
        },
        {
            "description": "Вы можете заставить любого игрока применить любую картачку действий на ваш выбор.",
            "key": "FORCE_TO_APPLY_CARD"
        },
        {
            "description": "Дает возможность анулировать один голос против себя.",
            "key": "CANCEL_VOTE"
        },
        {
            "description": "Дает возможность открыть здоровье у любого игрока на выбор.",
            "key": "OPEN_HEALTS_STATUSES"
        },
        {
            "description": "Дает возможность изменить вашу профессию на новую.",
            "key": "CHANGE_SELF_PROFESSION"
        },
        {
            "description": "Дает возможность открыть любую характеристику у любого игрока на выбор.",
            "key": "OPEN_FEATURE"
        },
        {
            "description": "Дает возможность обменяться дополнительной информацией с человеком до вас.",
            "key": "EXCHANGE_ADDITIONAL_INFORMATION"
        },
        {
            "description": "На голосование можете перенести голос другого игрока.",
            "key": "MOVE_VOTE"
        },
        {
            "description": "Можете вернуть ушедшего игрока.",
            "key": "RETURN_PLAYER"
        },
        {
            "description": "Дает возможность изменить вашу фобию.",
            "key": "CHANGE_SELF_PHOBIA"
        },
        {
            "description": "Дает возможность излечить любого игрока.",
            "key": "CURES_PLAYER"
        },
        {
            "description": "Дает возможность обменяться здоровьем с человеком до вас.",
            "key": "EXCHANGE_HEALTS_STATUSES"
        },
        {
            "description": "Дает возможность поменять ваши биологические черты на новые.",
            "key": "CHANGE_BIOLOGICAL_TRAITS"
        },
        {
            "description": "Дает возможность обменяться багажом с любым игроком.",
            "key": "EXCHANGE_BAGGAGE"
        },
        {
            "description": "Дает возможность сократить время высказывание любого игрока на 30 секунд.",
            "key": "REDUCE_TIME"
        },
        {
            "description": "Увеличивает количество мест в бункере на одно.",
            "key": "INCREASES_BUNKER"
        },
        {
            "description": "Дает возможност добавить против кого-либо дополнительный голос.",
            "key": "ADD_VOTE"
        },
        {
            "description": "Дает возможност добавить против кого-либо дополнительный голос.",
            "key": "ADD_VOTE"
        },
        {
            "description": "Дает возможность изменить ваш багаж на новый.",
            "key": "CHANGE_BAGGAGE"
        },
        {
            "description": "Дает возможность предоставить любому игроку иммунитет во время голосования на круг.",
            "key": "ROUND_DEFENSE"
        },
        {
            "description": "Дает возможность открыть багаж у любого игрока на выбор.",
            "key": "OPEN_BAGGAGE"
        },
        {
            "description": "Дает возможность изменить ваше телосложение на новое.",
            "key": "CHANGE_BODY_TYPE"
        },
        {
            "description": "Дает возможность излечить болезнь любому игроку, которая не требует хирургического вмешательства.",
            "key": "CURE_WITHOUT_SURGERY"
        },
        {
            "description": "Дает возможность отменить только что разыгранную карту действий.",
            "key": "CANCEL_ACTION_CARD"
        },
        {
            "description": "Бункер находится на необитаемом острове.",
            "key": "DESERT_ISLAND"
        },
        {
            "description": "Рядом с бункером находиться парк аттракционов. 40% разрушения.",
            "key": "AMUSEMENT_PARK"
        },
        {
            "description": "Лечит бесплодие.",
            "key": "TREATS_INFERTILITY"
        },
        {
            "description": "Меняет условия катастрофы.",
            "key": "CHANGE_CATASTROPHE"
        },
        {
            "description": "Вы уже победили. Если вас выгнали вы попадаете в другой бункер и ставите себе цель отомстить.",
            "key": "WINNER"
        },
        {
            "description": "Дает возможность изменить всем игрокам состояние здоровья на новое.",
            "key": "CHANGE_ALL_HEALTH_STATUSES"
        },
        {
            "description": "Дает возможность изменить всем игрокам хобби на новые.",
            "key": "CHANGE_ALL_HOBBIES"
        },
        {
            "description": "Дает возможность изменить всем игрокам характер на новый.",
            "key": "CHANGE_ALL_CHARACTERS"
        },
        {
            "description": "Дает возможность изменить всем игрокам биологические черты на новые.",
            "key": "CHANGE_ALL_BIOLOGICAL_TRAITS"
        },
        {
            "description": "Дает возможность изменить всем игрокам физические данные на новые.",
            "key": "CHANGE_ALL_BODY_TYPE"
        },
        {
            "description": "Дает возможность изменить всем игрокам професии на новые.",
            "key": "CHANGE_ALL_PROFESSIONS"
        },
        {
            "description": "Дает возможность изменить всем игрокам фобии на новые.",
            "key": "CHANGE_ALL_PHOBIAS"
        },
        {
            "description": "Дает возможность изменить всем игрокам багаж на новые.",
            "key": "CHANGE_ALL_BAGGAGE"
        },
        {
            "description": "Дает возможность изменить всем игрокам дополнительную информацию на новую.",
            "key": "CHANGE_ALL_ADDITIONAL_INFORMATION"
        }
    ],
    "characters": [
        "Плаксивый",
        "Безкорыстный",
        "Великолепный",
        "Меланхолик",
        "Замкнутый",
        "Лицемер",
        "Упрямый",
        "Ленивый",
        "Скандалист",
        "Конфликтный",
        "Истеричный",
        "Самовлюбленный",
        "Веселый",
        "Токсичная",
        "Трус",
        "Бризгливый",
        "Креативный",
        "Ласковый",
        "Дружелюбный",
        "Загадочная",
        "Жестокий",
        "Патологический лжец",
        "Неопрятная",
        "Нимфоман",
        "Мстительный",
        "Перфекционист",
        "Параноик",
        "Безжалостный",
        "Брезгливый",
        "Гуманист",
        "Буйный"
    ],
    "healthStatuses": [
        {
            "description": "Косоглазие",
            "chance": 2
        },
        {
            "description": "Ухудшение памяти. Снижение интеллекта",
            "chance": 2
        },
        {
            "description": "Дальтонизм",
            "chance": 2
        },
        {
            "description": "Биполярное расстройство",
            "chance": 2
        },
        {
            "description": "Конъюнктивит",
            "chance": 2
        },
        {
            "description": "Бронхиальная астма",
            "chance": 2
        },
        {
            "description": "Катаракта",
            "chance": 2
        },
        {
            "description": "Язва здоровья",
            "chance": 2
        },
        {
            "description": "Шизофрения",
            "chance": 2
        },
        {
            "description": "Псориаз",
            "chance": 2
        },
        {
            "description": "Гонорея",
            "chance": 2
        },
        {
            "description": "Аритмия",
            "chance": 2
        },
        {
            "description": "Синдром Туретта",
            "chance": 2
        },
        {
            "description": "Диабет",
            "chance": 2
        },
        {
            "description": "Астма",
            "chance": 2
        },
        {
            "description": "Без руки",
            "chance": 2
        },
        {
            "description": "Туберкулез",
            "chance": 2
        },
        {
            "description": "Мигрень",
            "chance": 2
        },
        {
            "description": "Аллергия на солнечный свет",
            "chance": 2
        },
        {
            "description": "Стигматизм",
            "chance": 2
        },
        {
            "description": "Дефект речи",
            "chance": 2
        },
        {
            "description": "Ветрянка",
            "chance": 2
        },
        {
            "description": "Рахит",
            "chance": 2
        },
        {
            "description": "Геморой",
            "chance": 2
        },
        {
            "description": "Парализован ниже пояса",
            "chance": 2
        },
        {
            "description": "Наркоман",
            "chance": 2
        },
        {
            "description": "Раздвоение личности",
            "chance": 2
        },
        {
            "description": "Алкоголик",
            "chance": 2
        },
        {
            "description": "Альцгеймер",
            "chance": 2
        },
        {
            "description": "Хламидии",
            "chance": 2
        },
        {
            "description": "Отсутствие обоняния",
            "chance": 2
        },
        {
            "description": "Пережил инсульт",
            "chance": 2
        },
        {
            "description": "Аллергия на солнце",
            "chance": 2
        },
        {
            "description": "Аллергия на пыль",
            "chance": 2
        },
        {
            "description": "Бесплодие",
            "chance": 2,
            "noStage": true
        },
        {
            "description": "Рак легких (осталось 3 года)",
            "chance": 2,
            "noStage": true
        },
        {
            "description": "Идеально здоров",
            "chance": 100,
            "noStage": true
        }
    ],
    "growth": {
        "min": 140,
        "max": 220
    },
    "weight": {
        "min": 35,
        "max": 150
    },
    "BMI": {
        "min": 13,
        "max": 60
    },
    "physiques": [
        {
            "description": "Анорексия",
            "min": 0,
            "max": 16,
            "chance": 10
        },
        {
            "description": "Недостаточная масса тела",
            "min": 16,
            "max": 18.5,
            "chance": 10
        },
        {
            "description": "Предожирение",
            "min": 25,
            "max": 30,
            "chance": 10
        },
        {
            "description": "Ожирение",
            "min": 30,
            "max": 35,
            "chance": 10
        },
        {
            "description": "Ожирение резкое",
            "min": 35,
            "max": 60,
            "chance": 10
        },
        {
            "description": "Норма",
            "min": 18.5,
            "max": 25,
            "chance": 100
        }
    ]
}
